Untitled
…
flights_planes_na <- flights %>%
  anti_join(planes, by = "tailnum") %>%
  group_by(carrier) %>%
  count(carrier) %>%
  arrange(desc(n)) 

We can see that AA and MQ have a large number of missing tail number.

1-9

What does anti_join(flights, airports, by = c(dest = faa)) tell you? What does anti_join(airports, flights, by = c(faa = dest)) tell you?

anti_join(flights, airports, by = c("dest" = "faa"))

## # A tibble: 7,602 x 21
## # Groups:   dest [?]
##     year month   day dep_time sched_dep_time dep_delay arr_time
##    <int> <int> <int>    <int>          <int>     <dbl>    <int>
##  1  2013     1     1      544            545        -1     1004
##  2  2013     1     1      615            615         0     1039
##  3  2013     1     1      628            630        -2     1137
##  4  2013     1     1      701            700         1     1123
##  5  2013     1     1      711            715        -4     1151
##  6  2013     1     1      820            820         0     1254
##  7  2013     1     1      820            820         0     1249
##  8  2013     1     1      840            845        -5     1311
##  9  2013     1     1      909            810        59     1331
## 10  2013     1     1      913            918        -5     1346
## # ... with 7,592 more rows, and 14 more variables: sched_arr_time <int>,
## #   arr_delay <dbl>, carrier <chr>, flight <int>, tailnum <chr>,
## #   origin <chr>, dest <chr>, air_time <dbl>, distance <dbl>, hour <dbl>,
## #   minute <dbl>, time_hour <dttm>, lat <dbl>, lon <dbl>

anti_join(airports, flights, by = c("faa" = "dest"))

## # A tibble: 1,357 x 8
##      faa                           name      lat        lon   alt    tz
##    <chr>                          <chr>    <dbl>      <dbl> <int> <dbl>
##  1   04G              Lansdowne Airport 41.13047  -80.61958  1044    -5
##  2   06A  Moton Field Municipal Airport 32.46057  -85.68003   264    -6
##  3   06C            Schaumburg Regional 41.98934  -88.10124   801    -6
##  4   06N                Randall Airport 41.43191  -74.39156   523    -5
##  5   09J          Jekyll Island Airport 31.07447  -81.42778    11    -5
##  6   0A9 Elizabethton Municipal Airport 36.37122  -82.17342  1593    -5
##  7   0G6        Williams County Airport 41.46731  -84.50678   730    -5
##  8   0G7  Finger Lakes Regional Airport 42.88356  -76.78123   492    -5
##  9   0P2   Shoestring Aviation Airfield 39.79482  -76.64719  1000    -5
## 10   0S9          Jefferson County Intl 48.05381 -122.81064   108    -8
## # ... with 1,347 more rows, and 2 more variables: dst <chr>, tzone <chr>
anti_join(flights, airports, by = c(dest = faa)) means the dest in these observations are not in the airports dataset, so they are either not registered or are foreign airports.

anti_join(airports, flights, by = c(faa = dest)) means the airports in these observations are not in the flights dataset, there were no planes that flew to those airports.

1-10

Is each plane is flown by a single airline? How many planes change ownership within the nycflight13 dataset?

flights %>%
  group_by(carrier,tailnum) %>%
  count() %>%
  filter(n > 1) %>%
  distinct(tailnum)

## # A tibble: 3,896 x 2
## # Groups:   carrier, tailnum [3,896]
##    carrier tailnum
##      <chr>   <chr>
##  1      9E  N146PQ
##  2      9E  N153PQ
##  3      9E  N161PQ
##  4      9E  N162PQ
##  5      9E  N170PQ
##  6      9E  N176PQ
##  7      9E  N181PQ
##  8      9E  N187PQ
##  9      9E  N197PQ
## 10      9E  N200PQ
## # ... with 3,886 more rows
…
